…
### Which stations are these?

``` r
stations_users %>% 
  slice_max(n_trips_casual, n = 10) %>% 
  arrange(desc(n_trips_casual)) %>% 
  select(start_station_name, n_trips_casual, n_trips_station, p_trips_casual, station_lng, station_lat)
```

    ## Adding missing grouping variables: `start_station_id`

    ## # A tibble: 26 × 7
    ## # Groups:   start_station_id [26]
    ##    start_station_id start_station_name        n_trips_casual n_trips_station
    ##    <fct>            <fct>                              <int>           <int>
    ##  1 35               Streeter Dr & Grand Ave            47106           60903
    ##  2 76               Lake Shore Dr & Monroe St          32854           45142
    ##  3 90               Millennium Park                    29735           36742
    ##  4 3                Shedd Aquarium                     16636           22112
    ##  5 2                Buckingham Fountain                15632           18812
    ##  6 623              Michigan Ave & 8th St              14120           19543
    ##  7 6                Dusable Harbor                     13300           18977
    ##  8 13029            Field Museum                        4239            5648
    ##  9 406              Lake Park Ave & 35th St             3602            5099
    ## 10 200              MLK Jr Dr & 47th St                 1028            1028
    ## # … with 16 more rows, and 3 more variables: p_trips_casual <dbl>,
    ## #   station_lng <dbl>, station_lat <dbl>
…
